*ERROR* 	2021/07/23 - 14:00:26: Link to database cannot be established:SQLSTATE[HY000] [2002] No such file or directory at line 102 in file classes/db/DbPDO.php
*ERROR* 	2021/07/23 - 14:00:26: Link to database cannot be established:SQLSTATE[HY000] [2002] No such file or directory at line 102 in file classes/db/DbPDO.php
*ERROR* 	2021/07/23 - 14:00:26: Link to database cannot be established:SQLSTATE[HY000] [2002] No such file or directory at line 102 in file classes/db/DbPDO.php
*ERROR* 	2021/07/23 - 14:00:26: Link to database cannot be established:SQLSTATE[HY000] [2002] No such file or directory at line 102 in file classes/db/DbPDO.php
*ERROR* 	2021/07/23 - 14:00:26: Link to database cannot be established:SQLSTATE[HY000] [2002] No such file or directory at line 102 in file classes/db/DbPDO.php
*ERROR* 	2021/07/23 - 14:00:26: Link to database cannot be established:SQLSTATE[HY000] [2002] No such file or directory at line 102 in file classes/db/DbPDO.php
*ERROR* 	2021/07/23 - 14:00:26: Link to database cannot be established:SQLSTATE[HY000] [2002] No such file or directory at line 102 in file classes/db/DbPDO.php
*ERROR* 	2021/07/23 - 14:00:26: Link to database cannot be established:SQLSTATE[HY000] [2002] No such file or directory at line 102 in file classes/db/DbPDO.php
*ERROR* 	2021/07/23 - 14:00:27: Link to database cannot be established:SQLSTATE[HY000] [2002] No such file or directory at line 102 in file classes/db/DbPDO.php
*ERROR* 	2021/07/23 - 14:00:27: Link to database cannot be established:SQLSTATE[HY000] [2002] No such file or directory at line 102 in file classes/db/DbPDO.php
