*ERROR* 	2021/06/28 - 14:43:29: You have an error in your SQL syntax; check the manual that corresponds to your MySQL server version for the right syntax to use near 'LIMIT 1' at line 3<br /><br /><pre>
                    SELECT (CASE WHEN is_company = 1 THEN company ELSE CONCAT(firstname," ",lastname) END) cliente 
                    FROM ps_customer 
                    WHERE id_customer = LIMIT 1</pre> at line 791 in file classes/db/Db.php
*ERROR* 	2021/06/28 - 14:57:53: You have an error in your SQL syntax; check the manual that corresponds to your MySQL server version for the right syntax to use near 'LIMIT 1' at line 3<br /><br /><pre>
                    SELECT (CASE WHEN is_company = 1 THEN company ELSE CONCAT(firstname," ",lastname) END) cliente 
                    FROM ps_customer 
                    WHERE id_customer = LIMIT 1</pre> at line 791 in file classes/db/Db.php
*ERROR* 	2021/06/28 - 14:58:04: You have an error in your SQL syntax; check the manual that corresponds to your MySQL server version for the right syntax to use near 'LIMIT 1' at line 3<br /><br /><pre>
                SELECT id_employee as id, CONCAT(firstname, " ", LEFT(lastname,1), ".") as name
                FROM ps_employee
                WHERE id_employee = LIMIT 1</pre> at line 791 in file classes/db/Db.php
*ERROR* 	2021/06/28 - 14:31:48: Link to database cannot be established:SQLSTATE[HY000] [2002] No such file or directory at line 102 in file classes/db/DbPDO.php
*ERROR* 	2021/06/28 - 14:31:48: Link to database cannot be established:SQLSTATE[HY000] [2002] No such file or directory at line 102 in file classes/db/DbPDO.php
*ERROR* 	2021/06/28 - 14:31:48: Link to database cannot be established:SQLSTATE[HY000] [2002] No such file or directory at line 102 in file classes/db/DbPDO.php
*ERROR* 	2021/06/28 - 14:31:48: Link to database cannot be established:SQLSTATE[HY000] [2002] No such file or directory at line 102 in file classes/db/DbPDO.php
*ERROR* 	2021/06/28 - 14:31:48: Link to database cannot be established:SQLSTATE[HY000] [2002] No such file or directory at line 102 in file classes/db/DbPDO.php
*ERROR* 	2021/06/28 - 14:31:48: Link to database cannot be established:SQLSTATE[HY000] [2002] No such file or directory at line 102 in file classes/db/DbPDO.php
*ERROR* 	2021/06/28 - 14:31:48: Link to database cannot be established:SQLSTATE[HY000] [2002] No such file or directory at line 102 in file classes/db/DbPDO.php
*ERROR* 	2021/06/28 - 14:31:48: Link to database cannot be established:SQLSTATE[HY000] [2002] No such file or directory at line 102 in file classes/db/DbPDO.php
*ERROR* 	2021/06/28 - 14:31:48: Link to database cannot be established:SQLSTATE[HY000] [2002] No such file or directory at line 102 in file classes/db/DbPDO.php
*ERROR* 	2021/06/28 - 16:31:48: Link to database cannot be established:SQLSTATE[HY000] [2002] No such file or directory at line 102 in file classes/db/DbPDO.php
*ERROR* 	2021/06/28 - 17:50:48: You have an error in your SQL syntax; check the manual that corresponds to your MySQL server version for the right syntax to use near 'LIMIT 1' at line 3<br /><br /><pre>
            SELECT * 
            FROM product_esolver
            WHERE id_product = LIMIT 1</pre> at line 791 in file classes/db/Db.php
*ERROR* 	2021/06/28 - 17:50:48: You have an error in your SQL syntax; check the manual that corresponds to your MySQL server version for the right syntax to use near 'LIMIT 1' at line 4<br /><br /><pre>
            SELECT seo_keyword 
            FROM ps_product_lang 
            WHERE id_lang = 2 
                AND id_product = LIMIT 1</pre> at line 791 in file classes/db/Db.php
*ERROR* 	2021/06/28 - 17:50:55: You have an error in your SQL syntax; check the manual that corresponds to your MySQL server version for the right syntax to use near '' at line 15<br /><br /><pre>
            SELECT id_category_default, tipo_anagrafica, cl.name as categoria, s.name as fornitore, m.name as costruttore, modello, reference, p.id_product, supplier_reference, cod_fornitore_1, ean13, ean_descrizione, ean_quantita, ean_tipo, intrastat, name_short, pl.name, fuori_produzione, p.condition, p.date_add, p.date_upd,'' as manufacturer_code, p.id_manufacturer,'' as category_code, id_category_gst, weight, p.id_supplier, note_fornitore,
                '' as codice_fornitore, altro_esolver, note, tempo_approvvigionamento, codice_barre_fornitore,note, note_2,stock_quantity,  amazon_quantity, ordinato_quantity, impegnato_quantity, '' as ordinato_a_fornitore, supplier_quantity, esprinet_quantity, attiva_quantity, itancia_quantity, intracom_quantity, asit_quantity, ingram_quantity, arrivo_quantity, arrivo_esprinet_quantity, arrivo_attiva_quantity, '' as arrivo_itancia_quantity, arrivo_intracom_quantity, arrivo_ingram_quantity, data_arrivo, data_arrivo_esprinet, '' as data_arrivo_itancia, data_arrivo_intracom, data_arrivo_ingram, 
                listino, p.sconto_acquisto_1, p.sconto_acquisto_2, p.sconto_acquisto_3, p.wholesale_price, acquisto_in_dollari, scorta_minima, scorta_minima_amazon, blocco_prezzi, login_for_offer, scontolistinovendita, price, '' as trasporto_gratuito, date_available, '' as data_arrivo_fornitore, 
                '' as sconto_rivenditore_1, '' as sconto_rivenditore_2, rebate_1,'Rebate 1' as descrizione_rebate_1, rebate_2,'Rebate 2' as descrizione_rebate_2, rebate_3,
                'Rebate 3' as descrizione_rebate_3, premio_target,'Premio' as descrizione_premio,pezzi_in_confezione, nr, pz, '' as contenuto_confezione, '' as garanzia, asin, commissione_amazon, commissione_eprice 
            FROM ps_product p
                LEFT JOIN campi_esolver ce on p.id_product = ce.id_product
                LEFT JOIN ps_product_lang pl on p.id_product = pl.id_product
                LEFT JOIN product_esolver pe on p.id_product = pe.id_product
                LEFT JOIN ps_category_lang cl on p.id_category_gst = cl.id_category
                LEFT JOIN ps_manufacturer m on p.id_manufacturer = m.id_manufacturer
                LEFT JOIN ps_supplier s on p.id_supplier = s.id_supplier
            WHERE pl.id_lang = 2
                AND cl.id_lang = 2
                AND p.id_product = </pre> at line 791 in file classes/db/Db.php
*ERROR* 	2021/06/28 - 17:50:55: You have an error in your SQL syntax; check the manual that corresponds to your MySQL server version for the right syntax to use near 'ORDER BY date DESC' at line 4<br /><br /><pre>
            SELECT * 
            FROM storico_prezzi 
            WHERE id_product =  
            ORDER BY date DESC
        </pre> at line 791 in file classes/db/Db.php
*ERROR* 	2021/06/28 - 17:51:43: You have an error in your SQL syntax; check the manual that corresponds to your MySQL server version for the right syntax to use near 'LIMIT 1' at line 3<br /><br /><pre>
            SELECT * 
            FROM product_esolver
            WHERE id_product = LIMIT 1</pre> at line 791 in file classes/db/Db.php
*ERROR* 	2021/06/28 - 17:52:09: You have an error in your SQL syntax; check the manual that corresponds to your MySQL server version for the right syntax to use near '' at line 15<br /><br /><pre>
            SELECT id_category_default, tipo_anagrafica, cl.name as categoria, s.name as fornitore, m.name as costruttore, modello, reference, p.id_product, supplier_reference, cod_fornitore_1, ean13, ean_descrizione, ean_quantita, ean_tipo, intrastat, name_short, pl.name, fuori_produzione, p.condition, p.date_add, p.date_upd,'' as manufacturer_code, p.id_manufacturer,'' as category_code, id_category_gst, weight, p.id_supplier, note_fornitore,
                '' as codice_fornitore, altro_esolver, note, tempo_approvvigionamento, codice_barre_fornitore,note, note_2,stock_quantity,  amazon_quantity, ordinato_quantity, impegnato_quantity, '' as ordinato_a_fornitore, supplier_quantity, esprinet_quantity, attiva_quantity, itancia_quantity, intracom_quantity, asit_quantity, ingram_quantity, arrivo_quantity, arrivo_esprinet_quantity, arrivo_attiva_quantity, '' as arrivo_itancia_quantity, arrivo_intracom_quantity, arrivo_ingram_quantity, data_arrivo, data_arrivo_esprinet, '' as data_arrivo_itancia, data_arrivo_intracom, data_arrivo_ingram, 
                listino, p.sconto_acquisto_1, p.sconto_acquisto_2, p.sconto_acquisto_3, p.wholesale_price, acquisto_in_dollari, scorta_minima, scorta_minima_amazon, blocco_prezzi, login_for_offer, scontolistinovendita, price, '' as trasporto_gratuito, date_available, '' as data_arrivo_fornitore, 
                '' as sconto_rivenditore_1, '' as sconto_rivenditore_2, rebate_1,'Rebate 1' as descrizione_rebate_1, rebate_2,'Rebate 2' as descrizione_rebate_2, rebate_3,
                'Rebate 3' as descrizione_rebate_3, premio_target,'Premio' as descrizione_premio,pezzi_in_confezione, nr, pz, '' as contenuto_confezione, '' as garanzia, asin, commissione_amazon, commissione_eprice 
            FROM ps_product p
                LEFT JOIN campi_esolver ce on p.id_product = ce.id_product
                LEFT JOIN ps_product_lang pl on p.id_product = pl.id_product
                LEFT JOIN product_esolver pe on p.id_product = pe.id_product
                LEFT JOIN ps_category_lang cl on p.id_category_gst = cl.id_category
                LEFT JOIN ps_manufacturer m on p.id_manufacturer = m.id_manufacturer
                LEFT JOIN ps_supplier s on p.id_supplier = s.id_supplier
            WHERE pl.id_lang = 2
                AND cl.id_lang = 2
                AND p.id_product = </pre> at line 791 in file classes/db/Db.php
*ERROR* 	2021/06/28 - 17:52:11: You have an error in your SQL syntax; check the manual that corresponds to your MySQL server version for the right syntax to use near 'ORDER BY date DESC' at line 4<br /><br /><pre>
            SELECT * 
            FROM storico_prezzi 
            WHERE id_product =  
            ORDER BY date DESC
        </pre> at line 791 in file classes/db/Db.php
*ERROR* 	2021/06/28 - 17:52:36: You have an error in your SQL syntax; check the manual that corresponds to your MySQL server version for the right syntax to use near 'LIMIT 1' at line 3<br /><br /><pre>
            SELECT * 
            FROM product_esolver
            WHERE id_product = LIMIT 1</pre> at line 791 in file classes/db/Db.php
*ERROR* 	2021/06/28 - 17:52:36: You have an error in your SQL syntax; check the manual that corresponds to your MySQL server version for the right syntax to use near 'LIMIT 1' at line 4<br /><br /><pre>
            SELECT seo_keyword 
            FROM ps_product_lang 
            WHERE id_lang = 2 
                AND id_product = LIMIT 1</pre> at line 791 in file classes/db/Db.php
*ERROR* 	2021/06/28 - 17:52:40: You have an error in your SQL syntax; check the manual that corresponds to your MySQL server version for the right syntax to use near 'LIMIT 1' at line 4<br /><br /><pre>
            SELECT seo_keyword 
            FROM ps_product_lang 
            WHERE id_lang = 2 
                AND id_product = LIMIT 1</pre> at line 791 in file classes/db/Db.php
*ERROR* 	2021/06/28 - 17:52:42: You have an error in your SQL syntax; check the manual that corresponds to your MySQL server version for the right syntax to use near '' at line 15<br /><br /><pre>
            SELECT id_category_default, tipo_anagrafica, cl.name as categoria, s.name as fornitore, m.name as costruttore, modello, reference, p.id_product, supplier_reference, cod_fornitore_1, ean13, ean_descrizione, ean_quantita, ean_tipo, intrastat, name_short, pl.name, fuori_produzione, p.condition, p.date_add, p.date_upd,'' as manufacturer_code, p.id_manufacturer,'' as category_code, id_category_gst, weight, p.id_supplier, note_fornitore,
                '' as codice_fornitore, altro_esolver, note, tempo_approvvigionamento, codice_barre_fornitore,note, note_2,stock_quantity,  amazon_quantity, ordinato_quantity, impegnato_quantity, '' as ordinato_a_fornitore, supplier_quantity, esprinet_quantity, attiva_quantity, itancia_quantity, intracom_quantity, asit_quantity, ingram_quantity, arrivo_quantity, arrivo_esprinet_quantity, arrivo_attiva_quantity, '' as arrivo_itancia_quantity, arrivo_intracom_quantity, arrivo_ingram_quantity, data_arrivo, data_arrivo_esprinet, '' as data_arrivo_itancia, data_arrivo_intracom, data_arrivo_ingram, 
                listino, p.sconto_acquisto_1, p.sconto_acquisto_2, p.sconto_acquisto_3, p.wholesale_price, acquisto_in_dollari, scorta_minima, scorta_minima_amazon, blocco_prezzi, login_for_offer, scontolistinovendita, price, '' as trasporto_gratuito, date_available, '' as data_arrivo_fornitore, 
                '' as sconto_rivenditore_1, '' as sconto_rivenditore_2, rebate_1,'Rebate 1' as descrizione_rebate_1, rebate_2,'Rebate 2' as descrizione_rebate_2, rebate_3,
                'Rebate 3' as descrizione_rebate_3, premio_target,'Premio' as descrizione_premio,pezzi_in_confezione, nr, pz, '' as contenuto_confezione, '' as garanzia, asin, commissione_amazon, commissione_eprice 
            FROM ps_product p
                LEFT JOIN campi_esolver ce on p.id_product = ce.id_product
                LEFT JOIN ps_product_lang pl on p.id_product = pl.id_product
                LEFT JOIN product_esolver pe on p.id_product = pe.id_product
                LEFT JOIN ps_category_lang cl on p.id_category_gst = cl.id_category
                LEFT JOIN ps_manufacturer m on p.id_manufacturer = m.id_manufacturer
                LEFT JOIN ps_supplier s on p.id_supplier = s.id_supplier
            WHERE pl.id_lang = 2
                AND cl.id_lang = 2
                AND p.id_product = </pre> at line 791 in file classes/db/Db.php
*ERROR* 	2021/06/28 - 17:52:43: You have an error in your SQL syntax; check the manual that corresponds to your MySQL server version for the right syntax to use near 'ORDER BY date DESC' at line 4<br /><br /><pre>
            SELECT * 
            FROM storico_prezzi 
            WHERE id_product =  
            ORDER BY date DESC
        </pre> at line 791 in file classes/db/Db.php
*ERROR* 	2021/06/28 - 17:52:44: You have an error in your SQL syntax; check the manual that corresponds to your MySQL server version for the right syntax to use near 'ORDER BY date DESC' at line 4<br /><br /><pre>
            SELECT * 
            FROM storico_prezzi 
            WHERE id_product =  
            ORDER BY date DESC
        </pre> at line 791 in file classes/db/Db.php
*ERROR* 	2021/06/28 - 17:52:46: You have an error in your SQL syntax; check the manual that corresponds to your MySQL server version for the right syntax to use near '' at line 15<br /><br /><pre>
            SELECT id_category_default, tipo_anagrafica, cl.name as categoria, s.name as fornitore, m.name as costruttore, modello, reference, p.id_product, supplier_reference, cod_fornitore_1, ean13, ean_descrizione, ean_quantita, ean_tipo, intrastat, name_short, pl.name, fuori_produzione, p.condition, p.date_add, p.date_upd,'' as manufacturer_code, p.id_manufacturer,'' as category_code, id_category_gst, weight, p.id_supplier, note_fornitore,
                '' as codice_fornitore, altro_esolver, note, tempo_approvvigionamento, codice_barre_fornitore,note, note_2,stock_quantity,  amazon_quantity, ordinato_quantity, impegnato_quantity, '' as ordinato_a_fornitore, supplier_quantity, esprinet_quantity, attiva_quantity, itancia_quantity, intracom_quantity, asit_quantity, ingram_quantity, arrivo_quantity, arrivo_esprinet_quantity, arrivo_attiva_quantity, '' as arrivo_itancia_quantity, arrivo_intracom_quantity, arrivo_ingram_quantity, data_arrivo, data_arrivo_esprinet, '' as data_arrivo_itancia, data_arrivo_intracom, data_arrivo_ingram, 
                listino, p.sconto_acquisto_1, p.sconto_acquisto_2, p.sconto_acquisto_3, p.wholesale_price, acquisto_in_dollari, scorta_minima, scorta_minima_amazon, blocco_prezzi, login_for_offer, scontolistinovendita, price, '' as trasporto_gratuito, date_available, '' as data_arrivo_fornitore, 
                '' as sconto_rivenditore_1, '' as sconto_rivenditore_2, rebate_1,'Rebate 1' as descrizione_rebate_1, rebate_2,'Rebate 2' as descrizione_rebate_2, rebate_3,
                'Rebate 3' as descrizione_rebate_3, premio_target,'Premio' as descrizione_premio,pezzi_in_confezione, nr, pz, '' as contenuto_confezione, '' as garanzia, asin, commissione_amazon, commissione_eprice 
            FROM ps_product p
                LEFT JOIN campi_esolver ce on p.id_product = ce.id_product
                LEFT JOIN ps_product_lang pl on p.id_product = pl.id_product
                LEFT JOIN product_esolver pe on p.id_product = pe.id_product
                LEFT JOIN ps_category_lang cl on p.id_category_gst = cl.id_category
                LEFT JOIN ps_manufacturer m on p.id_manufacturer = m.id_manufacturer
                LEFT JOIN ps_supplier s on p.id_supplier = s.id_supplier
            WHERE pl.id_lang = 2
                AND cl.id_lang = 2
                AND p.id_product = </pre> at line 791 in file classes/db/Db.php
