John;DOE;John DOE;pub@prestashop.com;16, Main street;Miami;33133;0102030405
John;DOE;John DOE;pub@prestashop.com;16, Main street;Paris;75002;0102030405
Carolina;Carusi;Carolina & Company;carolina.carusi@ezdirect.it;sgsggr;sgrhrseh;11111;4643634643
Carolina;Carusi;Carolina & Company;carolina.carusi@ezdirect.it;Via dei Mille 107 bis;Carrara;54033;0585780628
